{
    "1": {
        "id": "1",
        "datum": "12.03.2020",
        "likes": "47",
        "art": "Foto",
        "kommentare": "8"
    },
    "2": {
        "id": "2",
        "datum": "43.902",
        "likes": "53",
        "art": "Foto",
        "kommentare": "1"
    },
    "3": {
        "id": "3",
        "datum": "22.03.2020",
        "likes": "511",
        "art": "Video",
        "kommentare": "10"
    },
    "4": {
        "id": "4",
        "datum": "06.04.2020",
        "likes": "482",
        "art": "Video",
        "kommentare": "1"
    },
    "5": {
        "id": "5",
        "datum": "28.05.2020",
        "likes": "43",
        "art": "Foto",
        "kommentare": "6"
    },
    "6": {
        "id": "6",
        "datum": "03.03.2020",
        "likes": "88",
        "art": "Foto",
        "kommentare": "0"
    },
    "7": {
        "id": "7",
        "datum": "06.06.2020",
        "likes": "70",
        "art": "Foto",
        "kommentare": "6"
    },
    "8": {
        "id": "8",
        "datum": "11.06.2020",
        "likes": "74",
        "art": "Foto",
        "kommentare": "5"
    },
    "9": {
        "id": "9",
        "datum": "16.06.2020",
        "likes": "62",
        "art": "Foto",
        "kommentare": "1"
    },
    "10": {
        "id": "10",
        "datum": "18.06.2020",
        "likes": "85",
        "art": "Foto",
        "kommentare": "2"
    },
    "11": {
        "id": "11",
        "datum": "22.06.2020",
        "likes": "44",
        "art": "Foto",
        "kommentare": "0"
    },
    "12": {
        "id": "12",
        "datum": "25.06.2020",
        "likes": "80",
        "art": "Foto",
        "kommentare": "2"
    },
    "13": {
        "id": "13",
        "datum": "26.06.2020",
        "likes": "67",
        "art": "Foto",
        "kommentare": "1"
    },
    "14": {
        "id": "14",
        "datum": "26.06.2020",
        "likes": "54",
        "art": "Foto",
        "kommentare": "1"
    },
    "15": {
        "id": "15",
        "datum": "30.06.2020",
        "likes": "63",
        "art": "Foto",
        "kommentare": "3"
    },
    "16": {
        "id": "16",
        "datum": "01.07.2020",
        "likes": "45",
        "art": "Foto",
        "kommentare": "0"
    },
    "17": {
        "id": "17",
        "datum": "08.07.2020",
        "likes": "39",
        "art": "Foto",
        "kommentare": "2"
    },
    "18": {
        "id": "18",
        "datum": "08.07.2020",
        "likes": "68",
        "art": "Foto",
        "kommentare": "1"
    },
    "19": {
        "id": "19",
        "datum": "11.07.2020",
        "likes": "53",
        "art": "Foto",
        "kommentare": "2"
    },
    "20": {
        "id": "20",
        "datum": "14.07.2020",
        "likes": "77",
        "art": "Foto",
        "kommentare": "0"
    },
    "21": {
        "id": "21",
        "datum": "03.08.2020",
        "likes": "87",
        "art": "Foto",
        "kommentare": "7"
    },
    "22": {
        "id": "22",
        "datum": "05.08.2020",
        "likes": "82",
        "art": "Foto",
        "kommentare": "11"
    },
    "23": {
        "id": "23",
        "datum": "08.08.2020",
        "likes": "90",
        "art": "Foto",
        "kommentare": "0"
    },
    "24": {
        "id": "24",
        "datum": "11.08.2020",
        "likes": "63",
        "art": "Foto",
        "kommentare": "2"
    },
    "25": {
        "id": "25",
        "datum": "14.08.2020",
        "likes": "53",
        "art": "Foto",
        "kommentare": "0"
    },
    "26": {
        "id": "26",
        "datum": "16.08.2020",
        "likes": "33",
        "art": "Foto",
        "kommentare": "1"
    },
    "27": {
        "id": "27",
        "datum": "18.08.2020",
        "likes": "82",
        "art": "Foto",
        "kommentare": "1"
    }
}