{
    "Kathrin K\u00f6hler": {
        "short name": "koehler",
        "name": "Kathrin K\u00f6hler",
        "follower": "453",
        "bemerkung": "",
        "link": "https://www.facebook.com/kathrin.koehler.zwickau/"
    },
    "Constance Arndt": {
        "short name": "arndt",
        "name": "Constance Arndt",
        "follower": "328",
        "bemerkung": "",
        "link": "https://www.facebook.com/Arndt2020/"
    },
    "Ute Br\u00fcckner": {
        "short name": "brueckner",
        "name": "Ute Br\u00fcckner",
        "follower": "62",
        "bemerkung": "",
        "link": "https://www.facebook.com/UteBruecknerZwickau/"
    },
    "Andreas Gerold": {
        "short name": "gerold",
        "name": "Andreas Gerold",
        "follower": "307",
        "bemerkung": "",
        "link": "https://www.facebook.com/OB.Zwickau/"
    },
    "Michael Jakob": {
        "short name": "jakob",
        "name": "Michael Jakob",
        "follower": "23",
        "bemerkung": "nur abonenten keine seite",
        "link": "https://www.facebook.com/profile.php?id=100004268799021"
    }
}