id,datum,reaktionen,shares,kommentare,art
1,04.08.2020,11,12,0,Titelbild
2,05.08.2020,13,3,0,Text
3,05.08.2020,24,11,0,Text + Bild
4,06.08.2020,260,68,114,Text + Video
5,07.08.2020,40,1,4,Text + Bild
6,10.08.2020,23,14,1,Text + Bild
7,12.08.2020,26,4,3,Text + Bild
8,12.08.2020,28,9,4,Text + Bild
