name	Geburtsdatum	Geburtsort	Geschlecht	Schulbildung	Beruf	funktion bisher	partei	politisches amt aktuell	web	fb	insta
Kathrin Köhler	03.01.1978	Gera	weiblich	Abitur	Juristin	Baubürgermeisterin	CDU	Baubürgermeisterin	True	True	True
Constance Arndt	17.07.1977	Dresden	weiblich	Abitur	Kauffrau	Geschäftsleiterin	BfZ	Stadträtin	True	True	True
Ute Brückner	18.07.1957		weiblich	Abitur	Lehrerin	Berufsschullehrerin	Die Linke	Stadträtin	True	True	False
Andreas Gerold	18.05.1963	Meerane	männlich	Mittlere Reife	Schlossermeister/Versicherungsfachmann	nicht bekannt	AfD	Stadtrat/Kreistagsmitlgied	True	True	False
Michael Jakob	24.06.1982	Friedrichroda	männlich	Fachabitur	Dipl. Ing. (Kfz-Technik)	Unternehmer	parteilos	None	True	True	True
